com\mycompany\albumproject\AlbumProject.class
com\mycompany\albumproject\dao\SaleDao.class
com\mycompany\albumproject\model\ReportSale.class
com\mycompany\albumproject\service\ReportService.class
com\mycompany\albumproject\poc\TestReportSale.class
com\mycompany\albumproject\helper\DatabaseHelper.class
